<?xml version="1.0" encoding="utf-8"?>
<!-- Generator: Adobe Illustrator 19.0.0, SVG Export Plug-In . SVG Version: 6.00 Build 0)  -->
<svg version="1.1" id="Layer_1" xmlns="http://www.w3.org/2000/svg" xmlns:xlink="http://www.w3.org/1999/xlink" x="0px" y="0px"
	 width="316.1px" height="316.1px" viewBox="-1137 1138.9 316.1 316.1" style="enable-background:new -1137 1138.9 316.1 316.1;"
	 xml:space="preserve">
<style type="text/css">
	.st0{fill:#FFFFFF;}
	.st1{display:none;}
	.st2{display:inline;fill:#3497DB;stroke:#3497DB;stroke-width:1.5;stroke-miterlimit:10;}
	.st3{display:inline;fill:#3497DB;stroke:#FFFFFF;stroke-width:2.4;stroke-miterlimit:10;}
	.st4{display:inline;fill:none;stroke:#3497DB;stroke-width:11;stroke-linecap:round;stroke-miterlimit:10;}
	.st5{display:inline;}
	.st6{fill:#3497DB;stroke:#FFFFFF;stroke-width:12.5;stroke-miterlimit:10;}
	.st7{display:none;fill:#3497DB;stroke:#FFFFFF;stroke-width:1.2;stroke-miterlimit:10;}
	.st8{fill:#3497DB;stroke:#3497DB;stroke-width:3;stroke-miterlimit:10;}
	.st9{display:inline;fill:#3497DB;stroke:#3497DB;stroke-width:3;stroke-miterlimit:10;}
	.st10{display:none;fill:#3497DB;stroke:#3497DB;stroke-width:1.54;stroke-miterlimit:10;}
	.st11{display:none;fill:#3497DB;stroke:#3497DB;stroke-width:3.5;stroke-miterlimit:10;}
	.st12{display:none;fill:#3497DB;stroke:#3497DB;stroke-width:1.5;stroke-miterlimit:10;}
</style>
<circle class="st0" cx="-978.6" cy="1297.3" r="157.8"/>
<g id="parking" class="st1">
	<path class="st2" d="M-1017,1286c-2.3,6.5-4.5,13-6.7,19.4c-1.2,3.4,4.2,4.9,5.4,1.5c2.3-6.5,4.5-13,6.7-19.4
		C-1010.4,1284-1015.8,1282.6-1017,1286z"/>
	<path class="st2" d="M-1031.4,1361.6c10.6,0.4,18.6-7.6,19.8-17.7c0.1-0.4,0.2-0.9,0.1-1.4c0-0.7-0.1-1.3-0.3-1.8
		c-1.3-9.5-8.7-17.3-18.8-17.3c-10.4,0-19.1,8.7-19.1,19.1C-1049.8,1352.6-1041.5,1361.2-1031.4,1361.6z M-1020.9,1342.5
		c-0.7,12.5-19.5,12.6-19.5,0C-1040.4,1329.9-1021.6,1330-1020.9,1342.5z"/>
	<path class="st2" d="M-930.6,1361.6c10.6,0.4,18.6-7.6,19.8-17.7c0.1-0.4,0.2-0.9,0.1-1.4c0-0.7-0.1-1.3-0.3-1.8
		c-1.3-9.5-8.7-17.3-18.8-17.3c-10.4,0-19.1,8.7-19.1,19.1C-948.9,1352.6-940.7,1361.2-930.6,1361.6z M-920,1342.5
		c-0.7,12.5-19.5,12.6-19.5,0C-939.5,1329.9-920.7,1330-920,1342.5z"/>
	<path class="st2" d="M-846.9,1268.1c-37.1-22.5-74.3-45.1-111.4-67.6c-4.8-2.9-9.9-6.9-15.5-8.3c-9.1-2.3-16.3,1.1-23.7,5.5
		c-20.5,12.5-41.1,24.9-61.6,37.4c-18.1,11-36.2,22-54.3,32.9c-5.1,3.1-0.4,11.2,4.7,8.1c36.2-21.9,72.3-43.9,108.5-65.8
		c4.2-2.5,8.4-5.7,12.8-7.8c9.2-4.2,15.3,0.5,22.6,4.9c20.7,12.6,41.4,25.1,62.1,37.7c17,10.3,34.1,20.7,51.1,31
		C-846.5,1279.3-841.8,1271.2-846.9,1268.1z"/>
	<path class="st2" d="M-869.7,1388.5c-11.3,0-22.5,0-33.8,0c0.5-0.6,0.9-1.2,1.3-1.8c2-3.8,1.4-8.6,1.4-12.8
		c6.1-2.2,10.5-8,10.5-14.9V1326c0-7.1-4.7-13-11-15.1l-16.8-44.1c-2.9-7.6-11.5-13.5-19.6-13.5h-84.8c-8.1,0-16.7,5.9-19.6,13.5
		l-16.8,44.1c-6.4,2.1-11,8-11,15.1v33.1c0,7,4.6,12.9,10.9,15c0,4.2-0.7,8.9,1.4,12.6c0.4,0.7,0.8,1.3,1.3,1.8c-1.4,0-2.8,0-4.2,0
		c-9,0-18,0-27,0c-6,0-6,9.4,0,9.4c63.7,0,127.4,0,191.1,0c9,0,18,0,27,0C-863.6,1397.9-863.6,1388.5-869.7,1388.5z M-917.3,1374.9
		h7.1c0.2,3.6,1,9.1-3.6,9.1C-918.2,1384.1-917.5,1378.5-917.3,1374.9z M-1033.5,1270.2c1.5-4,6.6-7.5,10.9-7.5h84.8
		c4.3,0,9.3,3.5,10.9,7.5l15.2,39.9h-8.2L-930,1281c-2.7-7.7-11.2-13.8-19.3-13.8h-61.7c-8.2,0-16.7,6-19.3,13.8l-10.1,29.1h-8.2
		L-1033.5,1270.2z M-929.9,1310h-100.7l9-26c1.4-4,6.3-7.5,10.5-7.5h61.7c4.2,0,9.1,3.5,10.5,7.5L-929.9,1310z M-1060.7,1326
		c0-3.6,2.9-6.6,6.6-6.6h147.8c3.6,0,6.6,2.9,6.6,6.6v33.1c0,3.6-2.9,6.6-6.6,6.6h-147.8c-3.6,0-6.6-2.9-6.6-6.6
		C-1060.7,1359-1060.7,1326-1060.7,1326z M-1046.3,1384.1c-4.5,0-3.8-5.6-3.6-9.1h7.1C-1042.5,1378.5-1041.7,1384.1-1046.3,1384.1z
		 M-1034.8,1386.7c1.9-3.5,1.5-7.8,1.4-11.7h106.8c-0.1,3.9-0.5,8.2,1.4,11.7c0.4,0.7,0.8,1.3,1.3,1.8c-37.4,0-74.7,0-112.1,0
		C-1035.6,1388-1035.2,1387.4-1034.8,1386.7z"/>
</g>
<g id="water" class="st1">
	<path class="st3" d="M-842.9,1288.8c0-3.7-3-6.8-6.8-6.8H-1074v-27.7h21.3v12.7c0,3.7,3,6.8,6.8,6.8s6.8-3,6.8-6.8v-19.4
		c0-3.7-3-6.8-6.8-6.8h-34.8c-3.7,0-6.8,3-6.8,6.8v34.5h-20.6c-3.7,0-6.8,3-6.8,6.8c0,42.5,25.6,79.2,62.1,95.5l-2.1,0.9
		c-3.5,1.4-5.1,5.4-3.6,8.9c1.1,2.6,3.6,4.2,6.3,4.2c0.9,0,1.8-0.2,2.6-0.5l16.5-6.9c7.3,1.6,14.9,2.5,22.7,2.5h63.1
		c9.2,0,18.2-1.2,26.7-3.5l18.8,7.9c0.9,0.4,1.7,0.5,2.6,0.5c2.7,0,5.2-1.6,6.3-4.2c1.4-3.5-0.2-7.4-3.6-8.9l-5.4-2.3
		C-867.1,1366-842.9,1330.2-842.9,1288.8L-842.9,1288.8z M-947.4,1379.7h-63.1c-47.8,0-87.2-37.1-90.6-84.1h244.4
		C-860.2,1342.6-899.5,1379.7-947.4,1379.7L-947.4,1379.7z"/>
	<line class="st4" x1="-1054" y1="1289.4" x2="-1054" y2="1316.4"/>
	<line class="st4" x1="-1033" y1="1289.4" x2="-1033" y2="1316.4"/>
	<line class="st4" x1="-1011" y1="1289.4" x2="-1011" y2="1316.4"/>
</g>
<g id="internet" class="st1">
	<g id="Wi-Fi" class="st5">
		<g>
			<path class="st6" d="M-978.9,1348.6c-13.8,0-24.9,11.2-24.9,24.9c0,13.8,11.2,24.9,24.9,24.9s24.9-11.2,24.9-24.9
				C-954,1359.8-965.2,1348.6-978.9,1348.6z M-845.4,1261.5c-33.3-39.7-82-62.4-133.5-62.4c-51.5,0-100.2,22.7-133.5,62.4
				c-4.4,5.3-3.7,13.1,1.5,17.6c2.3,2,5.2,2.9,8,2.9c3.6,0,7.1-1.5,9.6-4.4c28.6-34,70.3-53.5,114.5-53.5
				c44.2,0,85.9,19.5,114.5,53.5c2.5,2.9,6,4.4,9.6,4.4c2.8,0,5.7-1,8-2.9C-841.7,1274.6-841,1266.7-845.4,1261.5z M-978.9,1248.9
				c-36.8,0-71.6,16.2-95.4,44.6c-4.4,5.3-3.7,13.1,1.5,17.6c2.3,2,5.2,2.9,8,2.9c3.6,0,7.1-1.5,9.5-4.4
				c19-22.7,46.9-35.7,76.3-35.7s57.2,13,76.3,35.7c2.5,2.9,6,4.4,9.5,4.4c2.8,0,5.7-1,8-2.9c5.3-4.4,6-12.3,1.5-17.6
				C-907.4,1265.1-942.1,1248.9-978.9,1248.9z M-978.9,1298.7c-22.1,0-43,9.7-57.2,26.7c-4.4,5.3-3.7,13.1,1.5,17.6
				c2.3,2,5.2,2.9,8,2.9c3.6,0,7.1-1.5,9.5-4.4c9.5-11.3,23.4-17.8,38.1-17.8s28.6,6.5,38.1,17.8c2.5,2.9,6,4.4,9.5,4.4
				c2.8,0,5.7-1,8-2.9c5.3-4.4,6-12.3,1.5-17.6C-936,1308.5-956.8,1298.7-978.9,1298.7z"/>
		</g>
	</g>
</g>
<path id="solar" class="st7" d="M-921.4,1267.5h46.5v31.4h-46.5V1267.5z M-921.4,1311.3h46.5v31.4h-46.5V1311.3z M-921.4,1355.1
	h46.5v31.4h-42.9c-0.1,0-0.1,0-0.2,0h-3.4L-921.4,1355.1L-921.4,1355.1z M-978.8,1267.5h44.9v31.4h-44.9V1267.5z M-978.8,1311.3
	h44.9v31.4h-44.9V1311.3z M-978.8,1355.1h44.9v31.4h-44.9V1355.1z M-991.2,1386.5h-3.4c-0.1,0-0.1,0-0.2,0h-42.9v-31.4h46.5V1386.5z
	 M-991.2,1342.7h-46.5v-31.4h46.5V1342.7z M-991.2,1298.9h-46.5v-31.4h46.5V1298.9z M-984,1398.9h55.3c0,0,14.5-0.2,14.4,0h45.6
	c3.4,0,6.2-2.8,6.2-6.2v-131.4c0-3.4-2.8-6.2-6.2-6.2H-1044c-3.4,0-6.2,2.8-6.2,6.2v131.4c0,3.4,2.8,6.2,6.2,6.2h45.6
	C-998.2,1399.1-984,1398.9-984,1398.9z M-1121.2,1238c0.8-3.3,4.2-5.3,7.6-4.5l14.4,3.7c2.6-6.1,6.6-11.3,11.5-15.3l-7.6-12.8
	c-1.8-3-0.8-6.8,2.2-8.5c3-1.8,6.8-0.8,8.5,2.2l7.6,12.8c5.9-2.4,12.4-3.4,19-2.8l3.7-14.4c0.8-3.3,4.2-5.3,7.6-4.5
	c3.3,0.8,5.3,4.2,4.5,7.6l-3.7,14.4c5.9,2.5,11.1,6.4,15.2,11.3l13-7.5c3-1.7,6.8-0.7,8.5,2.3c1.7,3,0.7,6.8-2.3,8.5l-17.9,10.2
	c-2.9,1.7-6.7,0.7-8.4-2.2c-3.8-6.3-9.9-10.8-17-12.7c0,0-0.1,0-0.1,0c0,0-0.1,0-0.1,0c-15-3.8-30.2,5.3-34.1,20.3c0,0,0,0,0,0.1
	c0,0,0,0,0,0.1c-1.8,7.2-0.7,14.8,3.1,21.2c0,0,0,0,0,0c0,0,0,0,0,0c3.8,6.4,9.9,11,17.2,12.9c3.3,0.8,5.3,4.2,4.5,7.6l-5.1,20
	c-0.7,2.8-3.2,4.7-6,4.7c-0.5,0-1-0.1-1.5-0.2c-3.3-0.8-5.3-4.2-4.5-7.6l3.7-14.4c-6-2.5-11.2-6.5-15.4-11.5l-12.8,7.6
	c-2.9,1.8-6.8,0.8-8.5-2.2c-1.8-3-0.8-6.8,2.2-8.5l12.8-7.6c-2.4-6-3.4-12.5-2.7-19l-14.4-3.7
	C-1120.1,1244.7-1122.1,1241.3-1121.2,1238L-1121.2,1238z"/>
<g id="garden" class="st1">
	<path class="st2" d="M-886.4,1279.2c7.8,0,14.2-6.3,14.2-14.2V1255c0-7.8-6.4-14.2-14.2-14.2h-11.5v-8c0-7.8-6.4-14.2-14.2-14.2
		h-13.4c-7.8,0-14.2,6.3-14.2,14.2v8h-18.5v-8c0-7.8-6.4-14.2-14.2-14.2h-13.4c-7.8,0-14.2,6.3-14.2,14.2v8h-18.5v-8
		c0-7.8-6.4-14.2-14.2-14.2h-13.4c-7.8,0-14.2,6.3-14.2,14.2v8h-11.5c-7.8,0-14.2,6.3-14.2,14.2v10.1c0,7.8,6.4,14.2,14.2,14.2h11.5
		v56.4h-11.5c-7.8,0-14.2,6.3-14.2,14.2v10.1c0,7.8,6.4,14.2,14.2,14.2h11.5v9.6c0,7.8,6.4,14.2,14.2,14.2h13.4
		c7.8,0,14.2-6.3,14.2-14.2v-9.6h18.5v9.6c0,7.8,6.4,14.2,14.2,14.2h13.4c7.8,0,14.2-6.3,14.2-14.2v-9.6h18.5v9.6
		c0,7.8,6.4,14.2,14.2,14.2h13.4c7.8,0,14.2-6.3,14.2-14.2v-9.6h11.5c7.8,0,14.2-6.3,14.2-14.2v-10.1c0-7.8-6.4-14.2-14.2-14.2
		h-11.5v-56.4H-886.4z M-886.4,1249.1c3.2,0,5.8,2.6,5.8,5.8v10.1c0,3.2-2.6,5.8-5.8,5.8h-11.5v-21.8H-886.4z M-939.6,1249.1v21.8
		h-18.5v-21.8H-939.6z M-939.6,1335.6h-18.5v-56.4h18.5C-939.6,1279.2-939.6,1335.6-939.6,1335.6z M-999.8,1249.1v21.8h-18.5v-21.8
		H-999.8z M-1018.3,1279.2h18.5v56.4h-18.5V1279.2z M-1071.5,1270.9c-3.2,0-5.8-2.6-5.8-5.8V1255c0-3.2,2.6-5.8,5.8-5.8h11.5v21.8
		H-1071.5z M-1071.5,1365.7c-3.2,0-5.8-2.6-5.8-5.8v-10.1c0-3.2,2.6-5.8,5.8-5.8h11.5v21.8H-1071.5z M-1026.6,1383.7
		c0,3.2-2.6,5.8-5.8,5.8h-13.4c-3.2,0-5.8-2.6-5.8-5.8v-150.9c0-3.2,2.6-5.8,5.8-5.8h13.4c3.2,0,5.8,2.6,5.8,5.8V1383.7z
		 M-1018.3,1365.7V1344h18.5v21.8H-1018.3z M-966.4,1383.7c0,3.2-2.6,5.8-5.8,5.8h-13.4c-3.2,0-5.8-2.6-5.8-5.8v-150.9
		c0-3.2,2.6-5.8,5.8-5.8h13.4c3.2,0,5.8,2.6,5.8,5.8V1383.7z M-958.1,1365.7V1344h18.5v21.8H-958.1z M-906.2,1383.7
		c0,3.2-2.6,5.8-5.8,5.8h-13.4c-3.2,0-5.8-2.6-5.8-5.8v-150.9c0-3.2,2.6-5.8,5.8-5.8h13.4c3.2,0,5.8,2.6,5.8,5.8V1383.7z
		 M-886.4,1344c3.2,0,5.8,2.6,5.8,5.8v10.1c0,3.2-2.6,5.8-5.8,5.8h-11.5V1344H-886.4z"/>
	<circle class="st2" cx="-918.7" cy="1260" r="6.5"/>
	<circle class="st2" cx="-978.9" cy="1260" r="6.5"/>
	<circle class="st2" cx="-1039.2" cy="1260" r="6.5"/>
	<circle class="st2" cx="-918.7" cy="1354.8" r="6.5"/>
	<circle class="st2" cx="-978.9" cy="1354.8" r="6.5"/>
	<circle class="st2" cx="-1039.2" cy="1354.8" r="6.5"/>
</g>
<g id="tv" class="st1">
	<path class="st2" d="M-887.3,1239.9h-93.5c13.8-13.2,27.6-26.5,41.4-39.7c3.8-3.7-2-9.5-5.8-5.8c-15.1,14.5-30.3,29-45.4,43.5
		c-7.4-9.5-14.8-19-22.2-28.5c-3.2-4.2-9,1.7-5.8,5.8c6.4,8.2,12.8,16.4,19.2,24.7h-71.3c-7.7,0-14,6.3-14,14v118.4
		c0,7.7,6.3,14,14,14h2.7c0,2.7,0,5.3,0,8c0,5.3,8.2,5.3,8.2,0c0-2.7,0-5.3,0-8h161.7c0,2.7,0,5.3,0,8c0,5.3,8.2,5.3,8.2,0
		c0-2.7,0-5.3,0-8h2.7c7.7,0,14-6.3,14-14v-118.4C-873.3,1246.1-879.6,1239.9-887.3,1239.9z M-881.5,1372.2c0,3.2-2.6,5.7-5.7,5.7
		h-183.4c-3.2,0-5.7-2.6-5.7-5.7v-118.4c0-3.2,2.6-5.7,5.7-5.7h183.4c3.2,0,5.7,2.6,5.7,5.7V1372.2z"/>
	<path class="st2" d="M-936.2,1261.4h-112.9c-7.7,0-14,6.3-14,14v79c0,7.7,6.3,14,14,14h112.9c7.7,0,14-6.3,14-14v-79
		C-922.3,1267.6-928.6,1261.4-936.2,1261.4z M-930.5,1354.3c0,3.2-2.6,5.7-5.7,5.7h-112.9c-3.2,0-5.7-2.6-5.7-5.7v-79
		c0-3.2,2.6-5.7,5.7-5.7h112.9c3.2,0,5.7,2.6,5.7,5.7C-930.5,1275.3-930.5,1354.3-930.5,1354.3z"/>
	<circle class="st2" cx="-899.2" cy="1277.8" r="7.9"/>
	<circle class="st2" cx="-899.2" cy="1302.5" r="7.9"/>
	<path class="st2" d="M-1018.9,1345.4c-5.3,0-11.9,1.2-17.1-0.3c-7.6-2.1-5.4-13.3-5.4-19.3c0-3.2-4.9-3.2-4.9,0
		c0,7.4-1.8,17.1,5.1,22.1c5.8,4.2,15.7,2.4,22.4,2.4C-1015.7,1350.4-1015.7,1345.4-1018.9,1345.4z"/>
</g>
<g id="furnished" class="st1">
	<g class="st5">
		<path class="st8" d="M-924.7,1352.4h-108.6c-1.9,0-3.5-1.6-3.5-3.5v-57.3c0-16-13-29-29-29c-12.4,0-22.5,10.1-22.5,22.5
			c0,9.6,7.8,17.3,17.3,17.3c7.2,0,13.1-5.9,13.1-13.1c0-5.4-4.4-9.8-9.8-9.8c-1.9,0-3.5-1.6-3.5-3.5c0-1.9,1.6-3.5,3.5-3.5
			c9.3,0,16.9,7.6,16.9,16.9c0,11.1-9.1,20.2-20.2,20.2c-13.4,0-24.4-10.9-24.4-24.4c0-16.3,13.3-29.6,29.6-29.6
			c19.9,0,36.1,16.2,36.1,36.1v53.8h101.5v-53.8c0-19.9,16.2-36.1,36.1-36.1c16.3,0,29.6,13.3,29.6,29.6c0,13.4-10.9,24.4-24.4,24.4
			c-11.1,0-20.2-9.1-20.2-20.2c0-9.3,7.6-16.9,16.9-16.9c1.9,0,3.5,1.6,3.5,3.5c0,1.9-1.6,3.5-3.5,3.5c-5.4,0-9.8,4.4-9.8,9.8
			c0,7.2,5.9,13.1,13.1,13.1c9.6,0,17.3-7.8,17.3-17.3c0-12.4-10.1-22.5-22.5-22.5c-16,0-29,13-29,29v57.3
			C-921.1,1350.9-922.7,1352.4-924.7,1352.4z"/>
	</g>
	<path class="st9" d="M-897.1,1386.3H-1060c-8,0-14.6-6.5-14.6-14.6v-65.8c0-1.9,1.6-3.5,3.5-3.5s3.5,1.6,3.5,3.5v65.8
		c0,4.1,3.4,7.5,7.5,7.5h162.8c4.1,0,7.5-3.4,7.5-7.5v-65.8c0-1.9,1.6-3.5,3.5-3.5c1.9,0,3.5,1.6,3.5,3.5v65.8
		C-882.6,1379.8-889.1,1386.3-897.1,1386.3z"/>
	<path class="st9" d="M-924.7,1322.6h-108.6c-1.9,0-3.5-1.6-3.5-3.5s1.6-3.5,3.5-3.5h108.6c1.9,0,3.5,1.6,3.5,3.5
		S-922.7,1322.6-924.7,1322.6z"/>
	<path class="st9" d="M-1033.2,1397.8c-1.9,0-3.5-1.6-3.5-3.5v-8.7c0-1.9,1.6-3.5,3.5-3.5s3.5,1.6,3.5,3.5v8.7
		C-1029.7,1396.2-1031.3,1397.8-1033.2,1397.8z"/>
	<path class="st9" d="M-924.7,1397.8c-1.9,0-3.5-1.6-3.5-3.5v-8.7c0-1.9,1.6-3.5,3.5-3.5c1.9,0,3.5,1.6,3.5,3.5v8.7
		C-921.1,1396.2-922.7,1397.8-924.7,1397.8z"/>
	<path class="st9" d="M-900.9,1262.6c-1.9,0-3.5-1.6-3.5-3.5v-23c0-19.2-15.6-34.8-34.8-34.8h-78.7c-19.2,0-34.8,15.6-34.8,34.8v23
		c0,1.9-1.6,3.5-3.5,3.5c-1.9,0-3.5-1.6-3.5-3.5v-23c0-23.1,18.8-41.9,41.9-41.9h78.7c23.1,0,41.9,18.8,41.9,41.9v23
		C-897.3,1261-898.9,1262.6-900.9,1262.6z"/>
</g>
<g id="swimming_pool" class="st1">
	<path class="st2" d="M-997.2,1327.6c0,5.5,8.5,5.5,8.5,0c0-10.4,0-20.8,0-31.2c21.4,0,42.7,0,64,0c0,10.4,0,20.8,0,31.2
		c0,5.5,8.5,5.5,8.5,0c0-21.5,0-43.1,0-64.6c0-8-0.1-16,0-23.9c0.1-8.9,1.4-18.4,7.3-25.4c6.1-7.1,15.5-9,24.4-9.2
		c5.5-0.1,5.5-8.6,0-8.5c-17.9,0.3-33.1,8.4-38.2,26.4c-2.1,7.6-2.2,15.8-2.1,23.9c-21.3,0-42.7,0-64,0c0-2.4,0-4.8,0-7.2
		c0.1-8.9,1.4-18.4,7.3-25.4c6.1-7.1,15.5-9,24.4-9.2c5.5-0.1,5.5-8.6,0-8.5c-17.9,0.3-33.1,8.4-38.2,26.4c-2.9,10.3-2,21.5-2,32
		C-997.2,1278.9-997.2,1303.2-997.2,1327.6z M-988.7,1288c0-8.3,0-16.6,0-25c0-2.7,0-5.5,0-8.2c21.4,0,42.7,0,64.1,0
		c0,11.1,0,22.1,0,33.2C-946,1288-967.4,1288-988.7,1288z"/>
	<path class="st2" d="M-1094.9,1335.4c10.7,0.6,14.1,17,21.5,23c7.8,6.4,18.3,4.7,24.9-2.5c5.6-6.2,11.5-25.2,22.8-19.6
		c9,4.4,10.6,17.8,19.2,23.4c8.7,5.7,18.6,2.2,24.6-5.4c5.4-6.9,12.9-26.5,24.2-15.9c7.3,6.9,9.2,18.4,19.1,22.7
		c9.1,3.9,17.5-0.7,22.9-8.1c3.4-4.7,5.7-11,10.1-14.8c6-5.3,12.1-1.8,16.1,3.9c6.4,9,10.4,19.8,23,20.5c5.5,0.3,5.4-8.2,0-8.5
		c-10.5-0.6-13.9-16.3-20.8-22.4c-7.1-6.4-17.4-6.1-24.3,0.5c-6.2,5.9-10.2,21.9-20.2,21.9c-10.2,0-14.3-16.9-21.1-22.7
		c-7.5-6.5-18-5.4-24.8,1.6c-5.9,6.2-11.9,25.8-23.3,20.2c-9-4.4-10.6-17.8-19.2-23.4c-8.5-5.5-18.2-2.4-24.2,5
		c-6.8,8.3-15,29.3-26.9,13.5c-6.9-9.1-10.4-20.5-23.5-21.3C-1100.4,1326.6-1100.3,1335.1-1094.9,1335.4z"/>
	<path class="st2" d="M-866.6,1389.4c-10.5-0.6-13.9-16.3-20.8-22.4c-7.1-6.4-17.4-6.1-24.3,0.5c-6.2,5.9-10.2,21.9-20.2,21.9
		c-10.2,0-14.3-16.9-21.1-22.7c-7.5-6.5-18-5.4-24.8,1.6c-5.9,6.2-11.9,25.8-23.3,20.2c-9-4.4-10.6-17.8-19.2-23.4
		c-8.5-5.5-18.2-2.4-24.2,5c-6.8,8.3-15,29.3-26.9,13.5c-6.9-9.1-10.4-20.5-23.5-21.3c-5.5-0.3-5.4,8.2,0,8.5
		c10.7,0.6,14.1,17,21.5,23c7.8,6.4,18.3,4.7,24.9-2.5c5.6-6.2,11.5-25.2,22.8-19.6c9,4.4,10.6,17.8,19.2,23.4
		c8.7,5.7,18.6,2.2,24.6-5.4c5.4-6.9,12.9-26.5,24.2-15.9c7.3,6.9,9.2,18.4,19.1,22.7c9.1,3.9,17.5-0.7,22.9-8.1
		c3.4-4.7,5.7-11,10.1-14.8c6-5.3,12.1-1.8,16.1,3.9c6.4,9,10.4,19.8,23,20.5C-861.2,1398.2-861.2,1389.7-866.6,1389.4z"/>
</g>
<g id="north" class="st1">
	<path class="st2" d="M-978.6,1193.5c-57.2,0-103.8,46.6-103.8,103.8s46.6,103.8,103.8,103.8c32.2,0,62-14.6,81.8-39.9
		c1.4-1.8,1.1-4.5-0.7-5.9c-1.8-1.4-4.5-1.1-5.9,0.7c-18.2,23.3-45.6,36.7-75.2,36.7c-52.6,0-95.3-42.8-95.3-95.3
		s42.8-95.3,95.3-95.3s95.3,42.8,95.3,95.3c0,2.3,1.9,4.2,4.2,4.2s4.2-1.9,4.2-4.2C-874.8,1240.1-921.4,1193.5-978.6,1193.5z"/>
	<path class="st2" d="M-937.4,1245.9l-41.5,41.5l-41.5-41.5c-1.4-1.4-3.7-1.6-5.3-0.5c-1.7,1.1-2.3,3.3-1.6,5.1l44.5,107.5
		c0.7,1.6,2.2,2.6,3.9,2.6c1.7,0,3.2-1,3.9-2.6l44.5-107.5c0.7-1.6,0.3-3.4-0.9-4.6c-0.2-0.2-0.4-0.4-0.6-0.5
		C-933.8,1244.2-936,1244.4-937.4,1245.9z M-1011.4,1266.9l29.5,29.5c1.6,1.6,4.3,1.6,6,0l29.5-29.5l-32.5,78.4L-1011.4,1266.9
		L-1011.4,1266.9z"/>
</g>
<path id="Gym" class="st10" d="M-868.8,1274.7h-5.7v-16.4c0-8.3-6.7-15-15-15h-10.1v-5.5c0-8.3-6.7-15-15-15h-11.1
	c-8.3,0-15,6.7-15,15v36.8h-76.1v-36.8c0-8.3-6.7-15-15-15h-11.1c-8.3,0-15,6.7-15,15v10.2h-10.1c-8.3,0-15,6.7-15,15v13.7h-5.7
	c-8,0-14.5,6.7-14.5,15v11c0,8.3,6.5,15,14.5,15h5.7v16.4c0,8.3,6.7,15,15,15h10.1v5.5c0,8.3,6.7,15,15,15h11.1c8.3,0,15-6.7,15-15
	v-38.8h76.1v38.8c0,8.3,6.7,15,15,15h11.1c8.3,0,15-6.7,15-15v-10.2h10.1c8.3,0,15-6.7,15-15v-13.7h5.7c8,0,14.5-6.7,14.5-15v-11
	C-854.3,1281.4-860.8,1274.7-868.8,1274.7z M-1088.7,1308.8c-3.1,0-5.7-2.8-5.7-6.2v-11c0-3.4,2.5-6.2,5.7-6.2h5.7v23.4H-1088.7z
	 M-1068,1340.3c-3.4,0-6.2-2.8-6.2-6.2v-71.1c0-3.4,2.8-6.2,6.2-6.2h10.1v83.5L-1068,1340.3L-1068,1340.3z M-1025.6,1354.6
	c0,3.4-2.8,6.2-6.2,6.2h-11.1c-3.4,0-6.2-2.8-6.2-6.2v-116.8c0-3.4,2.8-6.2,6.2-6.2h11.1c3.4,0,6.2,2.8,6.2,6.2V1354.6z
	 M-1016.8,1306.9v-23.5h76.1v23.5H-1016.8z M-908.4,1354.6c0,3.4-2.8,6.2-6.2,6.2h-11.1c-3.4,0-6.2-2.8-6.2-6.2v-116.8
	c0-3.4,2.8-6.2,6.2-6.2h11.1c3.4,0,6.2,2.8,6.2,6.2V1354.6z M-883.3,1329.4c0,3.4-2.8,6.2-6.2,6.2h-10.1v-83.5h10.1
	c3.4,0,6.2,2.8,6.2,6.2V1329.4z M-863.1,1300.7c0,3.4-2.5,6.2-5.7,6.2h-5.7v-23.4h5.7c3.1,0,5.7,2.8,5.7,6.2V1300.7z"/>
<path id="electriity" class="st11" d="M-900.7,1267C-900.7,1267-900.7,1267-900.7,1267c0-0.3-0.1-0.7-0.2-0.9c0,0,0,0,0,0
	c-0.1-0.3-0.3-0.5-0.5-0.8c0,0,0-0.1-0.1-0.1c-0.1-0.1-0.2-0.2-0.4-0.4c0,0,0,0-0.1-0.1c-0.1-0.1-0.1-0.1-0.2-0.1
	c-0.1,0-0.1-0.1-0.2-0.1c-0.1,0-0.2-0.1-0.2-0.1c-0.1,0-0.2-0.1-0.3-0.1c0,0-0.1,0-0.1,0l-53.1-22.8v-18.3h48.6v13.8
	c0,1.8,1.5,3.3,3.3,3.3c1.8,0,3.3-1.5,3.3-3.3v-16.9c0-0.1,0-0.1,0-0.2c0-0.1,0-0.2,0-0.3c0,0,0,0,0,0c0-0.3-0.1-0.6-0.2-0.9
	c0,0,0,0,0,0c-0.1-0.3-0.3-0.5-0.5-0.8c0,0,0-0.1-0.1-0.1c-0.1-0.1-0.2-0.2-0.4-0.4c0,0,0,0-0.1-0.1c-0.1-0.1-0.1-0.1-0.2-0.1
	c-0.1,0-0.1-0.1-0.2-0.1c-0.1,0-0.2-0.1-0.2-0.1c-0.1,0-0.2-0.1-0.3-0.1c0,0-0.1,0-0.1,0l-55-23.7c-0.4-0.2-0.8-0.3-1.3-0.3h-45.7
	c-0.5,0-0.9,0.1-1.3,0.3c0,0-55.2,23.7-55.2,23.7c0,0,0,0,0,0c0,0-0.1,0-0.1,0c-0.1,0-0.2,0.1-0.3,0.1c-0.1,0-0.1,0.1-0.2,0.1
	c0,0-0.1,0-0.1,0.1c-0.1,0-0.1,0.1-0.2,0.1c0,0-0.1,0-0.1,0.1c-0.1,0-0.1,0.1-0.1,0.1c0,0-0.1,0.1-0.1,0.1c0,0-0.1,0.1-0.1,0.1
	c0,0,0,0.1-0.1,0.1c0,0-0.1,0.1-0.1,0.1c0,0,0,0.1-0.1,0.1c0,0-0.1,0.1-0.1,0.1c0,0,0,0.1-0.1,0.1c0,0.1-0.1,0.1-0.1,0.2
	c0,0.1-0.1,0.1-0.1,0.2c0,0.1-0.1,0.1-0.1,0.2c0,0,0,0.1,0,0.1c0,0.1,0,0.1,0,0.2c0,0,0,0.1,0,0.1c0,0.1,0,0.1,0,0.2
	c0,0,0,0.1,0,0.1c0,0.1,0,0.1,0,0.2c0,0,0,0,0,0.1v17.1c0,1.8,1.5,3.3,3.3,3.3s3.3-1.5,3.3-3.3v-13.8h48.6v18.3l-53.2,22.9
	c0,0,0,0,0,0c0,0-0.1,0-0.1,0c-0.1,0-0.2,0.1-0.3,0.1c-0.1,0-0.1,0.1-0.2,0.1c0,0-0.1,0-0.1,0.1c-0.1,0-0.1,0.1-0.2,0.1
	c0,0-0.1,0-0.1,0.1c-0.1,0-0.1,0.1-0.1,0.1c0,0-0.1,0.1-0.1,0.1c0,0-0.1,0.1-0.1,0.1c0,0,0,0.1-0.1,0.1c0,0-0.1,0.1-0.1,0.1
	c0,0,0,0.1-0.1,0.1c0,0-0.1,0.1-0.1,0.1c0,0,0,0.1-0.1,0.1c0,0.1-0.1,0.1-0.1,0.2c0,0.1-0.1,0.1-0.1,0.2c0,0.1-0.1,0.1-0.1,0.2
	c0,0,0,0.1,0,0.1c0,0.1,0,0.1,0,0.2c0,0,0,0.1,0,0.1c0,0.1,0,0.1,0,0.2c0,0,0,0.1,0,0.1c0,0.1,0,0.1,0,0.2c0,0,0,0,0,0.1v17.1
	c0,1.8,1.5,3.3,3.3,3.3s3.3-1.5,3.3-3.3v-13.8h47.4l-38.8,123.8c0,0,0,0,0,0c0,0.2-0.1,0.3-0.1,0.5c0,0,0,0,0,0c0,0.2,0,0.3,0,0.5
	c0,0,0,0.1,0,0.1c0,0.2,0,0.3,0.1,0.5c0,0,0,0.1,0,0.1c0.1,0.3,0.2,0.6,0.3,0.9c0,0,0,0,0,0.1c0.1,0.1,0.2,0.3,0.3,0.4
	c0,0,0,0,0.1,0.1c0,0,0.1,0.1,0.1,0.1c0.1,0.1,0.1,0.1,0.2,0.2c0,0,0,0,0.1,0.1c0.1,0.1,0.3,0.2,0.4,0.3c0,0,0,0,0,0c0,0,0,0,0,0
	c0.1,0.1,0.2,0.1,0.3,0.2c0,0,0,0,0,0c0.1,0.1,0.3,0.1,0.4,0.1c0,0,0.1,0,0.1,0c0.1,0,0.2,0,0.3,0.1c0,0,0.1,0,0.1,0
	c0.1,0,0.3,0,0.4,0c0.7,0,1.4-0.2,2-0.7c0.1-0.1,0.2-0.1,0.2-0.2l93.6-87.6l23.3,74.2l-44.3-41.4c-1.3-1.2-3.4-1.2-4.6,0.2
	c-1.2,1.3-1.2,3.4,0.2,4.6l53.4,49.9c0.6,0.6,1.4,0.9,2.2,0.9c0.6,0,1.2-0.2,1.7-0.5c1.3-0.8,1.8-2.3,1.4-3.8l-38.8-123.8h47.4v13.8
	c0,1.8,1.5,3.3,3.3,3.3s3.3-1.5,3.3-3.3v-16.9c0-0.1,0-0.1,0-0.2C-900.7,1267.3-900.7,1267.2-900.7,1267z M-1001.6,1264.1v-17.2
	h39.1v17.2H-1001.6z M-955.9,1216.6v-15.5l36,15.5L-955.9,1216.6L-955.9,1216.6z M-1001.6,1199.4h39.1v17.2h-39.1V1199.4z
	 M-1044.1,1216.6l36-15.5v15.5H-1044.1z M-962.5,1223.2v17.2h-39.1v-17.2H-962.5z M-1008.2,1248.6v15.5h-36L-1008.2,1248.6z
	 M-1014.9,1310.2l28,26.2l-51.3,48L-1014.9,1310.2z M-951.4,1303.3L-982,1332l-30.7-28.7l10.2-32.6h40.9L-951.4,1303.3z
	 M-955.9,1264.1v-15.5l36,15.5H-955.9z"/>
<path class="st12" d="M-872.8,1236.2c-5.3-2.7-6.6-5.9-9.2-11c-1.4-2.8-3-5.3-5.7-6.9c-2.8-1.7-8.8-1.6-10.9-3.9
	c-2.1-2.4-0.3-8.1,0.1-11c0.6-4.4-0.2-8.7-4.4-9.1c-0.7-0.2-1.5-0.2-2.4,0.2c-0.7,0.2-1.3,0.5-1.8,0.9c-8.1,4-14.6,12.1-20.5,18.5
	c-9.8,10.6-19.2,21.5-29.6,31.5c-8.5,8.1-16.1,15.4-28.3,14.6c-17-1.1-33.5-5.8-50.6-6.4c-11.4-0.4-24.4,0.8-33.8,7.8
	c-7.5-8.4-13.4-17.7-15-29.2c-0.7-5.1-8.5-2.9-7.8,2.1c1.7,12.8,8.6,23.3,17,32.7c-10,12.8-8.8,30.8-3.7,45.2
	c1.4,3.9,3.1,7.9,3.3,12c0.3,5.2-1.8,10.7-3.4,15.6c-2.6,7.9-4.6,15.2-3.6,23.6c1.5,12.2,5.6,34.4,20.9,36.6
	c5.3,0.8,12.2-0.8,14.6-6.2c2.8-6.4-3.6-14.3-5.7-20.1c-1.8-5-3.8-11.4-1.1-16.3c2.2-3.8,7-6.5,10.2-9.4c2.8-2.5,5.6-5.2,7.6-8.5
	c2.2-3.7,2.2-7.8,3.9-11.5c3.6-7.9,19.4-9.9,27.1-10.3c6.7-0.4,13.2,0.2,19.7,1.8c16,4,29,11.5,31.7,28.6
	c2.3,14.4,1.9,34.1,12.4,45.5c6.5,7.1,27.5,10.2,25.6-4.4c-0.4-3.3-2.2-6.2-4.2-8.9c-1.6-2.2-4.7-4-5.9-6.2
	c-3.5-6.4-1.3-17.8-0.8-24.7c0.4-5.4,0.4-11.2,2.4-16.4c1.5-3.9,4.1-7,6.4-10.4c3.8-5.5,4.8-11.2,5.5-17.8c1-8.9,1.1-17.9,1.7-26.8
	c0.4-7.3-0.9-18.4,9.1-18.2c4.5,0.1,8.2,3.1,12.6,3.9c3.6,0.7,7.7,0,11.2-1c7.3-2.2,13-7.5,13.8-15.4
	C-863.9,1241.2-867.8,1238.8-872.8,1236.2z M-919.7,1288.5c-0.3,7-0.6,14-1.7,20.9c-1.2,6.9-5.7,10.9-8.9,16.9
	c-4.1,7.6-4.3,16.2-4.9,24.6c-0.5,7.2-1.2,14.9,0.2,22c1,5.2,3.4,6.9,6.9,10.7c3.2,3.5,6.6,8.5-0.7,8.1c-4.6-0.3-7.4-3.3-9.5-7.1
	c-7.8-14.5-4.5-32.5-10.1-47.6c-8-21.8-39.1-28.9-59.7-27.1c-8,0.7-15.8,2.6-23,6.3c-6.9,3.6-8.1,5.7-9.8,12.7
	c-3.7,15.6-24.4,18.7-22.5,36.6c0.7,6.8,3.3,12.8,6.1,19c1.4,3.1,4.6,6.3-1.5,7.7c-2.1,0.5-4-0.3-5.6-1.4c-3.3-2.2-5.1-6.8-6.4-10.3
	c-3.2-8.7-5.8-19.2-4-28.4c1.6-8,5.5-15.4,6.5-23.5c0.9-7.3-1.9-13.9-4.2-20.7c-3.2-9.3-4.1-19-0.8-28.5
	c5.7-16.6,24.1-18.4,39.4-17.6c16.8,0.9,33.2,5.7,50,6.4c11,0.4,18.7-4.9,26.8-11.9c3.5-3,6.8-6.3,10.1-9.6
	c6.4,10.9,16.1,18.4,27.7,23.8C-919.9,1276.9-919.5,1283.7-919.7,1288.5z M-877.6,1253.9c-11.8,7.3-26.1-9.7-37,2.4
	c-1.4,1.6-2.5,3.6-3.2,5.9c-9.9-5-18-11.8-23.3-21.7c4.7-5,9.2-10,13.8-15c4.5-4.9,9-9.9,13.7-14.6c2-2,4.3-4.5,6.8-6.4
	c0,0,0,0.1,0,0.1c-0.2,1.3-0.4,2.5-0.5,3.8c-0.2,3.1-0.2,6.4,1.2,9.3c2.5,5,7.9,4.7,12.4,6.8c6.2,2.9,6.4,11.5,11.9,15.8
	c1.9,1.5,4.3,2.1,6.2,3.5c1.7,1.2,2.7,0.5,3,3.2C-872.3,1249.7-875.8,1252.8-877.6,1253.9z"/>
<path id="XMLID_394_" class="st12" d="M-983.4,1396c0,2.4-1.9,4.3-4.3,4.3h-24.9c-2.4,0-4.3-1.9-4.3-4.3c0-2.4,1.9-4.3,4.3-4.3h24.9
	C-985.4,1391.7-983.4,1393.6-983.4,1396z M-1030.6,1391.7h-24.9c-2.4,0-4.3,1.9-4.3,4.3c0,2.4,1.9,4.3,4.3,4.3h24.9
	c2.4,0,4.3-1.9,4.3-4.3C-1026.3,1393.6-1028.2,1391.7-1030.6,1391.7z M-1052.9,1233.7c0.8,0.8,1.9,1.2,3,1.2c1.2,0,2.3-0.5,3.2-1.4
	c1.6-1.8,1.5-4.5-0.2-6.1l-6.7-6.2c-1.8-1.6-4.5-1.5-6.1,0.2c-1.6,1.8-1.5,4.5,0.2,6.1L-1052.9,1233.7z M-907.7,1234.8
	c1.1,0,2.1-0.4,3-1.2l6.7-6.2c1.8-1.6,1.9-4.4,0.2-6.1c-1.6-1.8-4.4-1.9-6.1-0.2l-6.7,6.2c-1.8,1.6-1.9,4.4-0.2,6.1
	C-910.1,1234.4-908.9,1234.8-907.7,1234.8z M-978.8,1210.9c2.4,0,4.3-1.9,4.3-4.3v-8.5c0-2.4-1.9-4.3-4.3-4.3s-4.3,1.9-4.3,4.3v8.5
	C-983.2,1209-981.2,1210.9-978.8,1210.9z M-1009.4,1379.3c2.4,0,4.3-1.9,4.3-4.3s-1.9-4.3-4.3-4.3h-24.9c-2.4,0-4.3,1.9-4.3,4.3
	s1.9,4.3,4.3,4.3H-1009.4z M-872.1,1353.9c0,2.4-1.9,4.3-4.3,4.3h-204.7c-2.4,0-4.3-1.9-4.3-4.3c0-2.4,1.9-4.3,4.3-4.3h5.8v-37.5
	c0-23.5,9.9-45.6,27.9-62.3c17.9-16.6,41.6-25.7,66.7-25.7h4c25.1,0,48.8,9.1,66.7,25.7c18,16.7,27.9,38.8,27.9,62.3v37.5h5.8
	C-874.1,1349.6-872.1,1351.6-872.1,1353.9z M-1066.7,1328.3c29.5-7.2,53.9-25.3,68.6-48.9c-12.3,8.7-26.1,15.3-40.6,19.5
	c-2.3,0.7-4.7-0.7-5.4-3s0.7-4.7,3-5.4c18-5.2,34.9-14.4,49-26.9c1-0.8,3.9-5,4.2-6.2c2.6-7.9,4.2-16.2,4.6-24.7
	c-46.2,1.2-83.4,36.3-83.4,79.3V1328.3z M-891,1337.3c-25.2-5.7-48.1-19.1-64.8-38.1c-10.8-12.2-18.6-26.4-23.1-41.5
	c-4.5,15.1-12.3,29.3-23.1,41.5c-16.7,18.9-39.6,32.4-64.8,38.1v12.3H-891L-891,1337.3L-891,1337.3z M-891,1312.1
	c0-43-37.2-78.1-83.4-79.3c0.5,8.8,2.1,17.4,4.9,25.7c0.3,1,2.8,4.6,3.7,5.4c14.1,12.4,30.9,21.6,48.8,26.7c2.3,0.7,3.6,3.1,3,5.4
	c-0.7,2.3-3.1,3.6-5.4,3c-14.2-4.1-27.7-10.5-39.8-18.9c14.7,23.3,39,41.2,68.2,48.3L-891,1312.1L-891,1312.1z M-902.1,1391.7H-927
	c-2.4,0-4.3,1.9-4.3,4.3c0,2.4,1.9,4.3,4.3,4.3h24.9c2.4,0,4.3-1.9,4.3-4.3C-897.8,1393.6-899.7,1391.7-902.1,1391.7z
	 M-966.4,1379.3c2.4,0,4.3-1.9,4.3-4.3s-1.9-4.3-4.3-4.3h-24.9c-2.4,0-4.3,1.9-4.3,4.3s1.9,4.3,4.3,4.3H-966.4z M-923.4,1379.3
	c2.4,0,4.3-1.9,4.3-4.3s-1.9-4.3-4.3-4.3h-24.9c-2.4,0-4.3,1.9-4.3,4.3s1.9,4.3,4.3,4.3H-923.4z M-945,1391.7h-24.9
	c-2.4,0-4.3,1.9-4.3,4.3c0,2.4,1.9,4.3,4.3,4.3h24.9c2.4,0,4.3-1.9,4.3-4.3C-940.6,1393.6-942.6,1391.7-945,1391.7z"/>
<g class="st1">
	<path class="st2" d="M-950.2,1285.6c0.4,0.1,0.8,0.2,1.2,0.2c1.5,0,2.9-1,3.5-2.5c1.1-3.4,4.8-5.2,8.2-4c7.2,2.4,15-1.4,17.4-8.6
		c0.7-1.9-0.4-4-2.3-4.6c-1.9-0.6-4,0.4-4.6,2.3c-1.1,3.4-4.8,5.2-8.2,4c-7.2-2.4-15,1.4-17.4,8.6
		C-953.1,1282.9-952.1,1284.9-950.2,1285.6z"/>
	<path class="st2" d="M-941.5,1260.1c0.4,0.1,0.8,0.2,1.2,0.2c1.5,0,2.9-1,3.5-2.5c0.6-1.6,1.7-2.9,3.2-3.7c1.5-0.8,3.3-0.9,4.9-0.3
		c7.2,2.4,15-1.4,17.4-8.6c0.7-1.9-0.4-4-2.3-4.6c-1.9-0.7-4,0.4-4.6,2.3c-1.1,3.4-4.8,5.2-8.2,4c-3.5-1.2-7.2-0.9-10.5,0.7
		c-3.3,1.6-5.8,4.4-6.9,7.9C-944.5,1257.4-943.4,1259.4-941.5,1260.1z"/>
	<path class="st2" d="M-932.9,1234.6c0.4,0.1,0.8,0.2,1.2,0.2c1.5,0,2.9-1,3.5-2.5c0.8-2.5,3.6-3.8,6-3c3.1,1,6.3,0.8,9.2-0.6
		c2.9-1.4,5.1-3.9,6.1-6.9c0.7-1.9-0.4-4-2.3-4.6c-1.9-0.7-4,0.4-4.6,2.3c-0.4,1.2-1.3,2.2-2.4,2.7c-1.1,0.6-2.4,0.6-3.6,0.2
		c-6.3-2.1-13.2,1.3-15.3,7.6C-935.8,1231.9-934.8,1233.9-932.9,1234.6z"/>
	<path class="st2" d="M-906.4,1285.3c-0.6-0.4-1.4-0.7-2.1-0.8c7.3-23.6,11.3-46.8,11.8-68.8c0.2-6.9-3.2-16.2-10-20.5
		c-3.3-2.1-8.7-3.8-15.6-0.2c-10.9,5.6-18.7,22.2-25,35.6c-0.4,0.8-0.7,1.5-1.1,2.3c-1.4-6.4-5.6-11.8-11.6-14.7
		c-1.4-6.8-6.8-12.1-13.6-13.5c-0.1-0.4-0.2-0.8-0.3-1.1c-1.4-4.8-5.6-8.4-10.5-8.9c-2.7-0.3-5.5,0.2-7.8,1.6
		c-2-1.1-4.2-1.7-6.5-1.7c-6.4,0-11.7,4.4-13.1,10.4c-7,1.9-12.1,8.3-12.1,15.7c-7.9,2-13.7,9.2-13.7,17.8c0,2.3,0.4,4.5,1.2,6.6
		c-2.1,2.5-3.2,5.7-3.2,9.1c0,2,0.4,3.9,1.2,5.7c-3.7-4-8.8-7.2-14.6-7c-2,0.1-3.6,1.8-3.5,3.8c0.1,2,1.7,3.5,3.7,3.5
		c0.1,0,0.2,0,0.4,0c3.4,0,6.6,2.3,8.9,4.9c-5.8,1.7-12.8,4.4-16.1,10.6c-2,3.7-2.2,8.3-0.9,13.5c-0.6,1.1-1,2.3-0.9,3.6l6.2,88.5
		c0.6,11.1,9.7,19.8,20.8,19.8h102.7c11.1,0,20.3-8.7,20.8-19.7l6.4-91.6c0,0,0,0,0-0.1C-904.2,1287.9-905,1286.3-906.4,1285.3z
		 M-945.4,1243.4c1.4-2.7,3-6.1,4.7-9.6c5.5-11.7,13-27.7,21.8-32.2c3.2-1.6,5.9-1.7,8.4-0.1c4.2,2.7,6.7,9.4,6.6,14.1
		c-0.6,21.6-4.5,44.4-11.8,67.7c-0.2,0.8-0.8,2.3-1.5,4.4l-6.2,2.8c-0.1,0.1-0.3,0.1-0.4,0.2c-1.8,1.1-3.8,1.6-5.8,1.6
		c-2,0-4-0.6-5.8-1.6l-2.6-1.6c-3-1.8-6.4-2.7-9.7-2.7c0,0-0.1,0-0.1,0c-3.4,0-6.8,0.9-9.9,2.7l-2.6,1.6c-1.5,0.9-3.1,1.3-4.7,1.5
		c0.1-0.3,0.2-0.6,0.3-0.9c1-3.4,2.1-6.8,3.2-10.1c0.4-1.3,0.9-2.5,1.3-3.8c0.9-2.6,1.9-5.3,2.9-7.9c0.5-1.2,0.9-2.3,1.4-3.5
		C-952.8,1258.1-949.3,1250.6-945.4,1243.4z M-992,1252c0.4-0.5,0.8-1.1,1.2-1.6c0,0,0,0,0,0c0.3-0.4,0.5-0.8,0.8-1.2
		c0.9-1.7,1.1-3.6,0.7-5.5l15.3-3.3c0.1,0.5,0.2,0.9,0.4,1.4c0.7,1.7,1.9,3.1,3.6,4c0.6,0.3,1.1,0.6,1.7,0.9c0.5,0.3,1,0.5,1.5,0.8
		c0.2,0.1,0.5,0.3,0.7,0.4c0.4,0.2,0.9,0.5,1.3,0.8c0.4,0.2,0.7,0.5,1.1,0.7c0.4,0.3,0.8,0.6,1.2,0.9c0.3,0.3,0.7,0.6,1,0.9
		c0.3,0.3,0.7,0.7,1,1.1c0.6,0.7,1.1,1.4,1.5,2.2c-1.6,3.4-3,6.9-4.4,10.4c-0.2,0.5-0.5,1.1-0.7,1.6c-4,1-7.9,2.9-12.7,6.3
		c-6,4.3-10.5,5.4-17.9,4.4l-2.2-10.2C-998.5,1260.2-995.2,1256.1-992,1252z M-973.9,1229.8c0.1,0,0.2,0,0.3,0
		c0.7,0,1.3,0.5,1.5,1.2c0.1,0.5-0.1,0.9-0.2,1.1c-0.1,0.2-0.4,0.5-0.9,0.7l-20.2,4.4c-0.8,0.2-1.6-0.4-1.8-1.2
		c-0.2-0.8,0.4-1.6,1.2-1.8l10.7-2.3L-973.9,1229.8z M-985.7,1286.4c-0.3,0-0.6,0-0.8,0.1c-2,0.2-4,0.7-5.8,1.5l-0.7-3.2
		c1.1,0.1,2.1,0.2,3.1,0.2c6.4,0,11.5-1.9,17.4-6.1c1.9-1.3,3.5-2.3,5.1-3.2c-0.3,1-0.7,1.9-1,2.9c-0.2,0.7-0.5,1.4-0.7,2.1
		c-1.1,3.3-2.1,6.5-3.1,9.9l-2.4-1.5c-3-1.8-6.4-2.7-9.7-2.7c0,0-0.1,0-0.1,0C-985,1286.3-985.3,1286.4-985.7,1286.4z
		 M-1029.5,1248.6l2.4-2l-1.6-2.7c-1-1.7-1.5-3.6-1.5-5.5c0-5.9,4.6-10.8,10.6-11l4.4-0.2l-1-4.3c-0.2-0.7-0.3-1.4-0.3-2.1
		c0-4.7,3.7-8.7,8.4-9l3.4-0.3v-3.6c0.1-3.3,2.8-5.9,6.1-5.9c1.9,0,3.3,0.9,4.1,1.6l2.6,2.3l2.5-2.4c1.1-1.1,2.7-1.6,4.3-1.4
		c2,0.2,3.7,1.8,4.3,3.7c0.2,0.7,0.2,1.3,0.2,1.9l-0.4,4.1h4.1c5.3,0,9.7,4.1,10,9.4l0.2,2.4l2.3,0.8c5.7,2,9.5,7.4,9.4,13.5
		c-0.1,2.6-0.9,5.1-2.4,7.3c-2.4-2.1-5.1-3.5-7.3-4.6c-0.6-0.3-1.1-0.6-1.7-0.9c-0.2-0.1-0.3-0.2-0.4-0.6c-0.1-0.5,0.1-1.2,0.5-1.6
		c1.6-1.9,2.2-4.4,1.7-6.8l-0.4-2c-0.4-2-1.7-3.8-3.4-4.9c-1.8-1.1-3.8-1.5-5.9-1.1l-1,0.2c0,0,0,0,0,0l-10.7,2.3l-10.5,2.3
		c-2,0.4-3.8,1.7-4.9,3.4c-1.1,1.8-1.5,3.8-1.1,5.9l0.2,1c0,0,0,0,0,0s0,0,0,0l0.2,1c0.5,2.4,2.2,4.5,4.5,5.5c0.6,0.2,1,0.7,1.2,1.2
		c0.1,0.3,0,0.4-0.2,0.8c0,0,0,0,0,0c-0.4,0.5-0.8,1-1.2,1.5c-0.4,0.5-0.8,1.1-1.2,1.6c-0.1,0.2-0.3,0.4-0.4,0.6
		c-0.3,0.4-0.6,0.8-0.9,1.3c-0.2,0.2-0.3,0.5-0.5,0.7c-0.3,0.4-0.5,0.9-0.8,1.3c-0.2,0.3-0.3,0.5-0.5,0.8c-0.3,0.5-0.5,1.1-0.8,1.6
		c-0.1,0.2-0.2,0.5-0.3,0.7c-0.3,0.8-0.6,1.6-0.8,2.5c0,0.1-0.1,0.3-0.1,0.4c-0.2,0.7-0.3,1.5-0.4,2.3c0,0.3,0,0.7-0.1,1
		c0,0.4-0.1,0.8-0.1,1.3c0,0,0,0,0-0.1c-0.1-0.1-0.1-0.1-0.2-0.2c-0.6-0.8-1.3-1.6-1.9-2.3c-0.2-0.2-0.4-0.5-0.6-0.7
		c-0.5-0.6-1.1-1.1-1.6-1.6c-0.2-0.2-0.4-0.3-0.5-0.5c-0.7-0.6-1.4-1.2-2.1-1.7c-0.2-0.1-0.4-0.3-0.6-0.4c-0.5-0.3-1-0.7-1.6-1
		c-0.3-0.1-0.5-0.3-0.8-0.4c-0.5-0.3-1.1-0.5-1.6-0.7c-0.2-0.1-0.4-0.2-0.5-0.2c-0.6-0.2-1.2-0.3-1.8-0.5c-0.1,0-0.1,0-0.2,0
		c-0.1,0-0.2-0.1-0.4-0.1c-0.4-0.1-0.8,0-1.2-0.1c-0.3,0-0.6-0.1-0.9-0.1c-0.1,0-0.2,0-0.3,0c-0.6,0-1.1,0.1-1.7,0.1
		c-0.3,0-0.5,0.1-0.8,0.1c-0.7,0.1-1.4,0.3-2.1,0.5c-0.1,0-0.2,0.1-0.3,0.1c-1.8,0.6-3.5,1.5-5.2,2.6c-0.3-0.8-0.5-1.7-0.5-2.6
		C-1032.1,1251.9-1031.2,1249.9-1029.5,1248.6z M-1053,1279c1.5-2.9,5.3-5.1,11.8-7c3.1-0.9,5.9-2.5,8.2-4.7c1-1,2-1.8,3-2.6
		c2.9-2.4,5.5-3.7,7.8-4c0.1,0,0.1,0,0.2,0c0.7-0.1,1.4-0.1,2.1,0.1c0.2,0,0.4,0.1,0.5,0.1c0.3,0.1,0.7,0.2,1,0.3
		c0.2,0.1,0.4,0.2,0.7,0.3c0.3,0.2,0.6,0.3,1,0.5c0.2,0.2,0.5,0.3,0.7,0.5c0.3,0.2,0.6,0.4,0.9,0.6c0.3,0.2,0.6,0.5,0.8,0.7
		c0.3,0.3,0.6,0.5,0.8,0.8c0.3,0.3,0.6,0.7,0.9,1c0.3,0.3,0.5,0.5,0.8,0.8c0.3,0.4,0.7,0.9,1.1,1.4c0.2,0.3,0.4,0.6,0.7,0.9
		c0.4,0.6,0.8,1.2,1.2,1.8c0.2,0.3,0.4,0.5,0.5,0.8c0.6,0.9,1.2,1.9,1.8,2.9c2.7,4.8,3.6,11.8,2.4,17.9c-0.2,0-0.4,0-0.6-0.1
		c-1.4-0.2-2.7-0.7-4-1.4l-2.6-1.6c-3-1.8-6.4-2.7-9.7-2.7c0,0-0.1,0-0.1,0c-3.4,0-6.8,0.9-9.9,2.7l-1.3,0.8c-2.2,1.3-4.7,2-7.2,2
		c-2.5,0-5-0.7-7.2-2l-4.9-3c0,0,0,0,0,0c-0.6-0.4-1.3-0.6-2.1-0.8C-1054.2,1283.2-1054,1280.8-1053,1279z M-918,1380.8
		c-0.4,7.2-6.3,12.8-13.5,12.8h-102.7c-7.2,0-13.1-5.6-13.5-12.9l-6.1-86.5l3.2,1.9c3.5,2.1,7.3,3.1,11.2,3.1c3.9,0,7.7-1,11.2-3.1
		l1.3-0.8c1.8-1.1,3.8-1.6,5.8-1.6c2,0,4,0.6,5.8,1.6l2.6,1.6c3.3,2,7,2.8,10.7,2.6c0.3,0,0.7,0,1,0c0,0,0.1,0,0.1,0
		c2.5-0.3,5-1.1,7.2-2.4c0.2-0.1,0.4-0.1,0.6-0.2l2.6-1.6c1.8-1.1,3.8-1.6,5.8-1.6c2,0,4,0.6,5.8,1.6l2.6,1.6c2.8,1.7,5.9,2.5,9,2.6
		c0.1,0,0.1,0,0.2,0c1.1,0,2.1,0,3.2-0.2c0.6-0.1,1.2-0.2,1.8-0.4c0.3-0.1,0.6-0.1,0.9-0.2c1.6-0.5,3.2-1,4.7-1.9l0,0l2.6-1.6
		c1.8-1.1,3.8-1.6,5.8-1.6c2,0,4,0.6,5.8,1.6l2.6,1.6c3,1.8,6.4,2.7,9.8,2.7c0.1,0,0.1,0,0.2,0c3.3,0,6.6-0.9,9.5-2.6l7.2-3.2
		c0.2-0.1,0.3-0.2,0.4-0.3l0.6-0.2L-918,1380.8z"/>
	<path class="st2" d="M-1039.3,1350.3h25.6c2,0,3.7-1.6,3.7-3.7s-1.6-3.7-3.7-3.7h-25.6c-2,0-3.7,1.6-3.7,3.7
		S-1041.3,1350.3-1039.3,1350.3z"/>
	<path class="st2" d="M-1039.3,1365h32.9c2,0,3.7-1.6,3.7-3.7s-1.6-3.7-3.7-3.7h-32.9c-2,0-3.7,1.6-3.7,3.7
		S-1041.3,1365-1039.3,1365z"/>
	<path class="st2" d="M-999.1,1372.3h-40.3c-2,0-3.7,1.6-3.7,3.7s1.6,3.7,3.7,3.7h40.3c2,0,3.7-1.6,3.7-3.7
		S-997.1,1372.3-999.1,1372.3z"/>
	<path class="st2" d="M-977.1,1372.3h-7.3c-2,0-3.7,1.6-3.7,3.7s1.6,3.7,3.7,3.7h7.3c2,0,3.7-1.6,3.7-3.7
		S-975.1,1372.3-977.1,1372.3z"/>
</g>
<path class="st8" d="M-873.6,1399.6h-210.8c-5.8,0-10.5-4.7-10.5-10.5v-146.6c0-5.8,4.7-10.5,10.5-10.5h210.8
	c5.8,0,10.5,4.7,10.5,10.5v146.6C-863,1394.9-867.7,1399.6-873.6,1399.6z M-1084.3,1238.5c-2.2,0-4,1.8-4,4v146.6c0,2.2,1.8,4,4,4
	h210.8c2.2,0,4-1.8,4-4v-146.6c0-2.2-1.8-4-4-4L-1084.3,1238.5L-1084.3,1238.5z M-887.7,1370.5h-57.2c-1.8,0-3.3-1.5-3.3-3.3
	s1.5-3.3,3.3-3.3h57.2c1.8,0,3.3,1.5,3.3,3.3S-885.9,1370.5-887.7,1370.5z M-1018.8,1370.5c-30.2,0-54.7-24.5-54.7-54.7
	c0-30.2,24.5-54.7,54.7-54.7s54.7,24.5,54.7,54.7C-964.1,1345.9-988.6,1370.5-1018.8,1370.5z M-1018.8,1267.6
	c-26.5,0-48.1,21.6-48.1,48.1c0,26.5,21.6,48.1,48.1,48.1s48.1-21.6,48.1-48.1C-970.7,1289.2-992.3,1267.6-1018.8,1267.6z
	 M-1004.4,1356.9C-1004.4,1356.9-1004.4,1356.9-1004.4,1356.9c-5.6,0-10.8-2.6-14.6-7.3c-5.3-6.5-4.8-17.2-4.2-22
	c-1.2-0.4-2.2-1-3.2-1.8c-1.1,0.2-4.2,0.8-6.8,3.8c-1.7,1.8-1.8,3.4-2,5.5c-0.2,2.5-0.5,5.9-4,8.7c-2.8,2.2-6.3,3-9.6,2.3
	c-4.5-1-8.4-4.8-11.5-11.2c-5.7-11.7-4.4-19.4-2.4-23.8c2.3-5,6.8-8.7,12.7-10.2c8.7-2.3,19,3.5,22.5,5.8c0.7-0.7,1.5-1.3,2.4-1.8
	c0,0,0,0,0,0c0.1-0.1,1.7-3.7,0.1-8.2c-0.8-2.3-2.2-3.2-4-4.3c-2.1-1.4-5-3.2-5.8-7.7c-0.6-3.5,0.3-7,2.5-9.5
	c3-3.5,8.2-5.2,15.4-4.9c13,0.5,19.2,5.2,22.2,9.1c3.4,4.4,4.4,10.1,3,16c-1.9,8.2-10.8,14.3-14.9,16.7c0.4,1.2,0.6,2.4,0.6,3.7
	c0,0.5,0,1-0.1,1.5c0,0,0,0,0,0c0.1,0.1,1.9,3.6,6.5,5c2.4,0.8,3.8,0.2,5.9-0.5c2.4-0.9,5.6-2,9.6,0c3.2,1.6,5.4,4.4,6.1,7.8
	c0.9,4.6-0.9,9.7-5.5,15.2C-991.9,1354.8-999.5,1356.9-1004.4,1356.9z M-1016.6,1328.2c-0.5,4.5-0.7,13,2.8,17.2
	c1.5,1.8,4.7,4.9,9.5,4.9c0,0,0,0,0,0c5,0,10.4-3.3,15.6-9.7c3.1-3.8,4.6-7.2,4.1-9.7c-0.4-1.8-1.8-2.8-2.6-3.2
	c-1.4-0.7-2.3-0.5-4.4,0.3c-2.4,0.9-5.6,2-10.1,0.6c-3.4-1.1-5.9-2.9-7.5-4.6C-1011.2,1326.2-1013.7,1327.7-1016.6,1328.2z
	 M-1045.8,1306.9c-0.9,0-1.7,0.1-2.5,0.3c-2.3,0.6-6.4,2.2-8.4,6.6c-2.1,4.5-1.3,10.8,2.3,18.3c2.1,4.4,4.7,7.2,7.1,7.7
	c1.8,0.4,3.3-0.5,4-1c1.3-1,1.4-1.8,1.6-4.1c0.2-2.5,0.5-5.9,3.6-9.4c2.5-2.7,5.2-4.2,7.5-5c-0.5-1.4-0.8-2.9-0.8-4.4
	c0-1.2,0.2-2.4,0.5-3.5C-1034,1310.3-1040.5,1306.9-1045.8,1306.9z M-1018.8,1309.7c-3.3,0-6.1,2.7-6.1,6.1s2.7,6.1,6.1,6.1
	c3.3,0,6.1-2.7,6.1-6.1S-1015.5,1309.7-1018.8,1309.7z M-1018,1303.2c3,0.2,5.7,1.4,7.7,3.3c3.9-2.3,10.8-7.4,12.1-12.7
	c0.5-2.3,1-6.7-1.9-10.5c-3-4-9-6.2-17.2-6.5c-4.9-0.2-8.5,0.7-10.2,2.6c-1.2,1.4-1.1,3.2-1,4.1c0.3,1.6,1,2.1,2.9,3.3
	c2.1,1.4,5,3.2,6.6,7.6C-1017.7,1297.8-1017.6,1300.9-1018,1303.2z M-887.7,1349.9h-57.2c-1.8,0-3.3-1.5-3.3-3.3s1.5-3.3,3.3-3.3
	h57.2c1.8,0,3.3,1.5,3.3,3.3S-885.9,1349.9-887.7,1349.9z M-887.7,1329.3h-57.2c-1.8,0-3.3-1.5-3.3-3.3c0-1.8,1.5-3.3,3.3-3.3h57.2
	c1.8,0,3.3,1.5,3.3,3.3C-884.4,1327.9-885.9,1329.3-887.7,1329.3z M-887.7,1308.8h-57.2c-1.8,0-3.3-1.5-3.3-3.3s1.5-3.3,3.3-3.3
	h57.2c1.8,0,3.3,1.5,3.3,3.3S-885.9,1308.8-887.7,1308.8z M-887.7,1288.2h-57.2c-1.8,0-3.3-1.5-3.3-3.3s1.5-3.3,3.3-3.3h57.2
	c1.8,0,3.3,1.5,3.3,3.3S-885.9,1288.2-887.7,1288.2z M-887.7,1267.6h-57.2c-1.8,0-3.3-1.5-3.3-3.3c0-1.8,1.5-3.3,3.3-3.3h57.2
	c1.8,0,3.3,1.5,3.3,3.3C-884.4,1266.2-885.9,1267.6-887.7,1267.6z"/>
</svg>
