<?xml version="1.0" encoding="utf-8"?>
<!-- Generator: Adobe Illustrator 19.0.0, SVG Export Plug-In . SVG Version: 6.00 Build 0)  -->
<svg version="1.1" id="Layer_1" xmlns="http://www.w3.org/2000/svg" xmlns:xlink="http://www.w3.org/1999/xlink" x="0px" y="0px"
	 width="316.1px" height="316.1px" viewBox="-1137 1138.9 316.1 316.1" style="enable-background:new -1137 1138.9 316.1 316.1;"
	 xml:space="preserve">
<style type="text/css">
	.st0{fill:#FFFFFF;}
	.st1{display:none;}
	.st2{display:inline;fill:#3497DB;stroke:#3497DB;stroke-width:1.5;stroke-miterlimit:10;}
	.st3{display:inline;fill:#3497DB;stroke:#FFFFFF;stroke-width:2.4;stroke-miterlimit:10;}
	.st4{display:inline;fill:none;stroke:#3497DB;stroke-width:11;stroke-linecap:round;stroke-miterlimit:10;}
	.st5{display:inline;}
	.st6{fill:#3497DB;stroke:#FFFFFF;stroke-width:12.5;stroke-miterlimit:10;}
	.st7{display:none;fill:#3497DB;stroke:#FFFFFF;stroke-width:1.2;stroke-miterlimit:10;}
	.st8{fill:#3497DB;stroke:#3497DB;stroke-width:3;stroke-miterlimit:10;}
	.st9{display:inline;fill:#3497DB;stroke:#3497DB;stroke-width:3;stroke-miterlimit:10;}
	.st10{fill:#3497DB;stroke:#3497DB;stroke-width:1.5;stroke-miterlimit:10;}
</style>
<circle class="st0" cx="-978.6" cy="1297.3" r="157.8"/>
<g id="parking" class="st1">
	<path class="st2" d="M-1017,1286c-2.3,6.5-4.5,13-6.7,19.4c-1.2,3.4,4.2,4.9,5.4,1.5c2.3-6.5,4.5-13,6.7-19.4
		C-1010.4,1284-1015.8,1282.6-1017,1286z"/>
	<path class="st2" d="M-1031.4,1361.6c10.6,0.4,18.6-7.6,19.8-17.7c0.1-0.4,0.2-0.9,0.1-1.4c0-0.7-0.1-1.3-0.3-1.8
		c-1.3-9.5-8.7-17.3-18.8-17.3c-10.4,0-19.1,8.7-19.1,19.1C-1049.8,1352.6-1041.5,1361.2-1031.4,1361.6z M-1020.9,1342.5
		c-0.7,12.5-19.5,12.6-19.5,0C-1040.4,1329.9-1021.6,1330-1020.9,1342.5z"/>
	<path class="st2" d="M-930.6,1361.6c10.6,0.4,18.6-7.6,19.8-17.7c0.1-0.4,0.2-0.9,0.1-1.4c0-0.7-0.1-1.3-0.3-1.8
		c-1.3-9.5-8.7-17.3-18.8-17.3c-10.4,0-19.1,8.7-19.1,19.1C-948.9,1352.6-940.7,1361.2-930.6,1361.6z M-920,1342.5
		c-0.7,12.5-19.5,12.6-19.5,0C-939.5,1329.9-920.7,1330-920,1342.5z"/>
	<path class="st2" d="M-846.9,1268.1c-37.1-22.5-74.3-45.1-111.4-67.6c-4.8-2.9-9.9-6.9-15.5-8.3c-9.1-2.3-16.3,1.1-23.7,5.5
		c-20.5,12.5-41.1,24.9-61.6,37.4c-18.1,11-36.2,22-54.3,32.9c-5.1,3.1-0.4,11.2,4.7,8.1c36.2-21.9,72.3-43.9,108.5-65.8
		c4.2-2.5,8.4-5.7,12.8-7.8c9.2-4.2,15.3,0.5,22.6,4.9c20.7,12.6,41.4,25.1,62.1,37.7c17,10.3,34.1,20.7,51.1,31
		C-846.5,1279.3-841.8,1271.2-846.9,1268.1z"/>
	<path class="st2" d="M-869.7,1388.5c-11.3,0-22.5,0-33.8,0c0.5-0.6,0.9-1.2,1.3-1.8c2-3.8,1.4-8.6,1.4-12.8
		c6.1-2.2,10.5-8,10.5-14.9V1326c0-7.1-4.7-13-11-15.1l-16.8-44.1c-2.9-7.6-11.5-13.5-19.6-13.5h-84.8c-8.1,0-16.7,5.9-19.6,13.5
		l-16.8,44.1c-6.4,2.1-11,8-11,15.1v33.1c0,7,4.6,12.9,10.9,15c0,4.2-0.7,8.9,1.4,12.6c0.4,0.7,0.8,1.3,1.3,1.8c-1.4,0-2.8,0-4.2,0
		c-9,0-18,0-27,0c-6,0-6,9.4,0,9.4c63.7,0,127.4,0,191.1,0c9,0,18,0,27,0C-863.6,1397.9-863.6,1388.5-869.7,1388.5z M-917.3,1374.9
		h7.1c0.2,3.6,1,9.1-3.6,9.1C-918.2,1384.1-917.5,1378.5-917.3,1374.9z M-1033.5,1270.2c1.5-4,6.6-7.5,10.9-7.5h84.8
		c4.3,0,9.3,3.5,10.9,7.5l15.2,39.9h-8.2L-930,1281c-2.7-7.7-11.2-13.8-19.3-13.8h-61.7c-8.2,0-16.7,6-19.3,13.8l-10.1,29.1h-8.2
		L-1033.5,1270.2z M-929.9,1310h-100.7l9-26c1.4-4,6.3-7.5,10.5-7.5h61.7c4.2,0,9.1,3.5,10.5,7.5L-929.9,1310z M-1060.7,1326
		c0-3.6,2.9-6.6,6.6-6.6h147.8c3.6,0,6.6,2.9,6.6,6.6v33.1c0,3.6-2.9,6.6-6.6,6.6h-147.8c-3.6,0-6.6-2.9-6.6-6.6
		C-1060.7,1359-1060.7,1326-1060.7,1326z M-1046.3,1384.1c-4.5,0-3.8-5.6-3.6-9.1h7.1C-1042.5,1378.5-1041.7,1384.1-1046.3,1384.1z
		 M-1034.8,1386.7c1.9-3.5,1.5-7.8,1.4-11.7h106.8c-0.1,3.9-0.5,8.2,1.4,11.7c0.4,0.7,0.8,1.3,1.3,1.8c-37.4,0-74.7,0-112.1,0
		C-1035.6,1388-1035.2,1387.4-1034.8,1386.7z"/>
</g>
<g id="water" class="st1">
	<path class="st3" d="M-842.9,1288.8c0-3.7-3-6.8-6.8-6.8H-1074v-27.7h21.3v12.7c0,3.7,3,6.8,6.8,6.8s6.8-3,6.8-6.8v-19.4
		c0-3.7-3-6.8-6.8-6.8h-34.8c-3.7,0-6.8,3-6.8,6.8v34.5h-20.6c-3.7,0-6.8,3-6.8,6.8c0,42.5,25.6,79.2,62.1,95.5l-2.1,0.9
		c-3.5,1.4-5.1,5.4-3.6,8.9c1.1,2.6,3.6,4.2,6.3,4.2c0.9,0,1.8-0.2,2.6-0.5l16.5-6.9c7.3,1.6,14.9,2.5,22.7,2.5h63.1
		c9.2,0,18.2-1.2,26.7-3.5l18.8,7.9c0.9,0.4,1.7,0.5,2.6,0.5c2.7,0,5.2-1.6,6.3-4.2c1.4-3.5-0.2-7.4-3.6-8.9l-5.4-2.3
		C-867.1,1366-842.9,1330.2-842.9,1288.8L-842.9,1288.8z M-947.4,1379.7h-63.1c-47.8,0-87.2-37.1-90.6-84.1h244.4
		C-860.2,1342.6-899.5,1379.7-947.4,1379.7L-947.4,1379.7z"/>
	<line class="st4" x1="-1054" y1="1289.4" x2="-1054" y2="1316.4"/>
	<line class="st4" x1="-1033" y1="1289.4" x2="-1033" y2="1316.4"/>
	<line class="st4" x1="-1011" y1="1289.4" x2="-1011" y2="1316.4"/>
</g>
<g id="internet" class="st1">
	<g id="Wi-Fi" class="st5">
		<g>
			<path class="st6" d="M-978.9,1348.6c-13.8,0-24.9,11.2-24.9,24.9c0,13.8,11.2,24.9,24.9,24.9s24.9-11.2,24.9-24.9
				C-954,1359.8-965.2,1348.6-978.9,1348.6z M-845.4,1261.5c-33.3-39.7-82-62.4-133.5-62.4c-51.5,0-100.2,22.7-133.5,62.4
				c-4.4,5.3-3.7,13.1,1.5,17.6c2.3,2,5.2,2.9,8,2.9c3.6,0,7.1-1.5,9.6-4.4c28.6-34,70.3-53.5,114.5-53.5
				c44.2,0,85.9,19.5,114.5,53.5c2.5,2.9,6,4.4,9.6,4.4c2.8,0,5.7-1,8-2.9C-841.7,1274.6-841,1266.7-845.4,1261.5z M-978.9,1248.9
				c-36.8,0-71.6,16.2-95.4,44.6c-4.4,5.3-3.7,13.1,1.5,17.6c2.3,2,5.2,2.9,8,2.9c3.6,0,7.1-1.5,9.5-4.4
				c19-22.7,46.9-35.7,76.3-35.7s57.2,13,76.3,35.7c2.5,2.9,6,4.4,9.5,4.4c2.8,0,5.7-1,8-2.9c5.3-4.4,6-12.3,1.5-17.6
				C-907.4,1265.1-942.1,1248.9-978.9,1248.9z M-978.9,1298.7c-22.1,0-43,9.7-57.2,26.7c-4.4,5.3-3.7,13.1,1.5,17.6
				c2.3,2,5.2,2.9,8,2.9c3.6,0,7.1-1.5,9.5-4.4c9.5-11.3,23.4-17.8,38.1-17.8s28.6,6.5,38.1,17.8c2.5,2.9,6,4.4,9.5,4.4
				c2.8,0,5.7-1,8-2.9c5.3-4.4,6-12.3,1.5-17.6C-936,1308.5-956.8,1298.7-978.9,1298.7z"/>
		</g>
	</g>
</g>
<path id="solar" class="st7" d="M-921.4,1267.5h46.5v31.4h-46.5V1267.5z M-921.4,1311.3h46.5v31.4h-46.5V1311.3z M-921.4,1355.1
	h46.5v31.4h-42.9c-0.1,0-0.1,0-0.2,0h-3.4L-921.4,1355.1L-921.4,1355.1z M-978.8,1267.5h44.9v31.4h-44.9V1267.5z M-978.8,1311.3
	h44.9v31.4h-44.9V1311.3z M-978.8,1355.1h44.9v31.4h-44.9V1355.1z M-991.2,1386.5h-3.4c-0.1,0-0.1,0-0.2,0h-42.9v-31.4h46.5V1386.5z
	 M-991.2,1342.7h-46.5v-31.4h46.5V1342.7z M-991.2,1298.9h-46.5v-31.4h46.5V1298.9z M-984,1398.9h55.3c0,0,14.5-0.2,14.4,0h45.6
	c3.4,0,6.2-2.8,6.2-6.2v-131.4c0-3.4-2.8-6.2-6.2-6.2H-1044c-3.4,0-6.2,2.8-6.2,6.2v131.4c0,3.4,2.8,6.2,6.2,6.2h45.6
	C-998.2,1399.1-984,1398.9-984,1398.9z M-1121.2,1238c0.8-3.3,4.2-5.3,7.6-4.5l14.4,3.7c2.6-6.1,6.6-11.3,11.5-15.3l-7.6-12.8
	c-1.8-3-0.8-6.8,2.2-8.5c3-1.8,6.8-0.8,8.5,2.2l7.6,12.8c5.9-2.4,12.4-3.4,19-2.8l3.7-14.4c0.8-3.3,4.2-5.3,7.6-4.5
	c3.3,0.8,5.3,4.2,4.5,7.6l-3.7,14.4c5.9,2.5,11.1,6.4,15.2,11.3l13-7.5c3-1.7,6.8-0.7,8.5,2.3c1.7,3,0.7,6.8-2.3,8.5l-17.9,10.2
	c-2.9,1.7-6.7,0.7-8.4-2.2c-3.8-6.3-9.9-10.8-17-12.7c0,0-0.1,0-0.1,0c0,0-0.1,0-0.1,0c-15-3.8-30.2,5.3-34.1,20.3c0,0,0,0,0,0.1
	c0,0,0,0,0,0.1c-1.8,7.2-0.7,14.8,3.1,21.2c0,0,0,0,0,0c0,0,0,0,0,0c3.8,6.4,9.9,11,17.2,12.9c3.3,0.8,5.3,4.2,4.5,7.6l-5.1,20
	c-0.7,2.8-3.2,4.7-6,4.7c-0.5,0-1-0.1-1.5-0.2c-3.3-0.8-5.3-4.2-4.5-7.6l3.7-14.4c-6-2.5-11.2-6.5-15.4-11.5l-12.8,7.6
	c-2.9,1.8-6.8,0.8-8.5-2.2c-1.8-3-0.8-6.8,2.2-8.5l12.8-7.6c-2.4-6-3.4-12.5-2.7-19l-14.4-3.7
	C-1120.1,1244.7-1122.1,1241.3-1121.2,1238L-1121.2,1238z"/>
<g id="garden" class="st1">
	<path class="st2" d="M-886.4,1279.2c7.8,0,14.2-6.3,14.2-14.2V1255c0-7.8-6.4-14.2-14.2-14.2h-11.5v-8c0-7.8-6.4-14.2-14.2-14.2
		h-13.4c-7.8,0-14.2,6.3-14.2,14.2v8h-18.5v-8c0-7.8-6.4-14.2-14.2-14.2h-13.4c-7.8,0-14.2,6.3-14.2,14.2v8h-18.5v-8
		c0-7.8-6.4-14.2-14.2-14.2h-13.4c-7.8,0-14.2,6.3-14.2,14.2v8h-11.5c-7.8,0-14.2,6.3-14.2,14.2v10.1c0,7.8,6.4,14.2,14.2,14.2h11.5
		v56.4h-11.5c-7.8,0-14.2,6.3-14.2,14.2v10.1c0,7.8,6.4,14.2,14.2,14.2h11.5v9.6c0,7.8,6.4,14.2,14.2,14.2h13.4
		c7.8,0,14.2-6.3,14.2-14.2v-9.6h18.5v9.6c0,7.8,6.4,14.2,14.2,14.2h13.4c7.8,0,14.2-6.3,14.2-14.2v-9.6h18.5v9.6
		c0,7.8,6.4,14.2,14.2,14.2h13.4c7.8,0,14.2-6.3,14.2-14.2v-9.6h11.5c7.8,0,14.2-6.3,14.2-14.2v-10.1c0-7.8-6.4-14.2-14.2-14.2
		h-11.5v-56.4H-886.4z M-886.4,1249.1c3.2,0,5.8,2.6,5.8,5.8v10.1c0,3.2-2.6,5.8-5.8,5.8h-11.5v-21.8H-886.4z M-939.6,1249.1v21.8
		h-18.5v-21.8H-939.6z M-939.6,1335.6h-18.5v-56.4h18.5C-939.6,1279.2-939.6,1335.6-939.6,1335.6z M-999.8,1249.1v21.8h-18.5v-21.8
		H-999.8z M-1018.3,1279.2h18.5v56.4h-18.5V1279.2z M-1071.5,1270.9c-3.2,0-5.8-2.6-5.8-5.8V1255c0-3.2,2.6-5.8,5.8-5.8h11.5v21.8
		H-1071.5z M-1071.5,1365.7c-3.2,0-5.8-2.6-5.8-5.8v-10.1c0-3.2,2.6-5.8,5.8-5.8h11.5v21.8H-1071.5z M-1026.6,1383.7
		c0,3.2-2.6,5.8-5.8,5.8h-13.4c-3.2,0-5.8-2.6-5.8-5.8v-150.9c0-3.2,2.6-5.8,5.8-5.8h13.4c3.2,0,5.8,2.6,5.8,5.8V1383.7z
		 M-1018.3,1365.7V1344h18.5v21.8H-1018.3z M-966.4,1383.7c0,3.2-2.6,5.8-5.8,5.8h-13.4c-3.2,0-5.8-2.6-5.8-5.8v-150.9
		c0-3.2,2.6-5.8,5.8-5.8h13.4c3.2,0,5.8,2.6,5.8,5.8V1383.7z M-958.1,1365.7V1344h18.5v21.8H-958.1z M-906.2,1383.7
		c0,3.2-2.6,5.8-5.8,5.8h-13.4c-3.2,0-5.8-2.6-5.8-5.8v-150.9c0-3.2,2.6-5.8,5.8-5.8h13.4c3.2,0,5.8,2.6,5.8,5.8V1383.7z
		 M-886.4,1344c3.2,0,5.8,2.6,5.8,5.8v10.1c0,3.2-2.6,5.8-5.8,5.8h-11.5V1344H-886.4z"/>
	<circle class="st2" cx="-918.7" cy="1260" r="6.5"/>
	<circle class="st2" cx="-978.9" cy="1260" r="6.5"/>
	<circle class="st2" cx="-1039.2" cy="1260" r="6.5"/>
	<circle class="st2" cx="-918.7" cy="1354.8" r="6.5"/>
	<circle class="st2" cx="-978.9" cy="1354.8" r="6.5"/>
	<circle class="st2" cx="-1039.2" cy="1354.8" r="6.5"/>
</g>
<g id="tv" class="st1">
	<path class="st2" d="M-887.3,1239.9h-93.5c13.8-13.2,27.6-26.5,41.4-39.7c3.8-3.7-2-9.5-5.8-5.8c-15.1,14.5-30.3,29-45.4,43.5
		c-7.4-9.5-14.8-19-22.2-28.5c-3.2-4.2-9,1.7-5.8,5.8c6.4,8.2,12.8,16.4,19.2,24.7h-71.3c-7.7,0-14,6.3-14,14v118.4
		c0,7.7,6.3,14,14,14h2.7c0,2.7,0,5.3,0,8c0,5.3,8.2,5.3,8.2,0c0-2.7,0-5.3,0-8h161.7c0,2.7,0,5.3,0,8c0,5.3,8.2,5.3,8.2,0
		c0-2.7,0-5.3,0-8h2.7c7.7,0,14-6.3,14-14v-118.4C-873.3,1246.1-879.6,1239.9-887.3,1239.9z M-881.5,1372.2c0,3.2-2.6,5.7-5.7,5.7
		h-183.4c-3.2,0-5.7-2.6-5.7-5.7v-118.4c0-3.2,2.6-5.7,5.7-5.7h183.4c3.2,0,5.7,2.6,5.7,5.7V1372.2z"/>
	<path class="st2" d="M-936.2,1261.4h-112.9c-7.7,0-14,6.3-14,14v79c0,7.7,6.3,14,14,14h112.9c7.7,0,14-6.3,14-14v-79
		C-922.3,1267.6-928.6,1261.4-936.2,1261.4z M-930.5,1354.3c0,3.2-2.6,5.7-5.7,5.7h-112.9c-3.2,0-5.7-2.6-5.7-5.7v-79
		c0-3.2,2.6-5.7,5.7-5.7h112.9c3.2,0,5.7,2.6,5.7,5.7C-930.5,1275.3-930.5,1354.3-930.5,1354.3z"/>
	<circle class="st2" cx="-899.2" cy="1277.8" r="7.9"/>
	<circle class="st2" cx="-899.2" cy="1302.5" r="7.9"/>
	<path class="st2" d="M-1018.9,1345.4c-5.3,0-11.9,1.2-17.1-0.3c-7.6-2.1-5.4-13.3-5.4-19.3c0-3.2-4.9-3.2-4.9,0
		c0,7.4-1.8,17.1,5.1,22.1c5.8,4.2,15.7,2.4,22.4,2.4C-1015.7,1350.4-1015.7,1345.4-1018.9,1345.4z"/>
</g>
<g id="furnished" class="st1">
	<g class="st5">
		<path class="st8" d="M-924.7,1352.4h-108.6c-1.9,0-3.5-1.6-3.5-3.5v-57.3c0-16-13-29-29-29c-12.4,0-22.5,10.1-22.5,22.5
			c0,9.6,7.8,17.3,17.3,17.3c7.2,0,13.1-5.9,13.1-13.1c0-5.4-4.4-9.8-9.8-9.8c-1.9,0-3.5-1.6-3.5-3.5c0-1.9,1.6-3.5,3.5-3.5
			c9.3,0,16.9,7.6,16.9,16.9c0,11.1-9.1,20.2-20.2,20.2c-13.4,0-24.4-10.9-24.4-24.4c0-16.3,13.3-29.6,29.6-29.6
			c19.9,0,36.1,16.2,36.1,36.1v53.8h101.5v-53.8c0-19.9,16.2-36.1,36.1-36.1c16.3,0,29.6,13.3,29.6,29.6c0,13.4-10.9,24.4-24.4,24.4
			c-11.1,0-20.2-9.1-20.2-20.2c0-9.3,7.6-16.9,16.9-16.9c1.9,0,3.5,1.6,3.5,3.5c0,1.9-1.6,3.5-3.5,3.5c-5.4,0-9.8,4.4-9.8,9.8
			c0,7.2,5.9,13.1,13.1,13.1c9.6,0,17.3-7.8,17.3-17.3c0-12.4-10.1-22.5-22.5-22.5c-16,0-29,13-29,29v57.3
			C-921.1,1350.9-922.7,1352.4-924.7,1352.4z"/>
	</g>
	<path class="st9" d="M-897.1,1386.3H-1060c-8,0-14.6-6.5-14.6-14.6v-65.8c0-1.9,1.6-3.5,3.5-3.5s3.5,1.6,3.5,3.5v65.8
		c0,4.1,3.4,7.5,7.5,7.5h162.8c4.1,0,7.5-3.4,7.5-7.5v-65.8c0-1.9,1.6-3.5,3.5-3.5c1.9,0,3.5,1.6,3.5,3.5v65.8
		C-882.6,1379.8-889.1,1386.3-897.1,1386.3z"/>
	<path class="st9" d="M-924.7,1322.6h-108.6c-1.9,0-3.5-1.6-3.5-3.5s1.6-3.5,3.5-3.5h108.6c1.9,0,3.5,1.6,3.5,3.5
		S-922.7,1322.6-924.7,1322.6z"/>
	<path class="st9" d="M-1033.2,1397.8c-1.9,0-3.5-1.6-3.5-3.5v-8.7c0-1.9,1.6-3.5,3.5-3.5s3.5,1.6,3.5,3.5v8.7
		C-1029.7,1396.2-1031.3,1397.8-1033.2,1397.8z"/>
	<path class="st9" d="M-924.7,1397.8c-1.9,0-3.5-1.6-3.5-3.5v-8.7c0-1.9,1.6-3.5,3.5-3.5c1.9,0,3.5,1.6,3.5,3.5v8.7
		C-921.1,1396.2-922.7,1397.8-924.7,1397.8z"/>
	<path class="st9" d="M-900.9,1262.6c-1.9,0-3.5-1.6-3.5-3.5v-23c0-19.2-15.6-34.8-34.8-34.8h-78.7c-19.2,0-34.8,15.6-34.8,34.8v23
		c0,1.9-1.6,3.5-3.5,3.5c-1.9,0-3.5-1.6-3.5-3.5v-23c0-23.1,18.8-41.9,41.9-41.9h78.7c23.1,0,41.9,18.8,41.9,41.9v23
		C-897.3,1261-898.9,1262.6-900.9,1262.6z"/>
</g>
<g id="swimming_pool" class="st1">
	<path class="st2" d="M-997.2,1327.6c0,5.5,8.5,5.5,8.5,0c0-10.4,0-20.8,0-31.2c21.4,0,42.7,0,64,0c0,10.4,0,20.8,0,31.2
		c0,5.5,8.5,5.5,8.5,0c0-21.5,0-43.1,0-64.6c0-8-0.1-16,0-23.9c0.1-8.9,1.4-18.4,7.3-25.4c6.1-7.1,15.5-9,24.4-9.2
		c5.5-0.1,5.5-8.6,0-8.5c-17.9,0.3-33.1,8.4-38.2,26.4c-2.1,7.6-2.2,15.8-2.1,23.9c-21.3,0-42.7,0-64,0c0-2.4,0-4.8,0-7.2
		c0.1-8.9,1.4-18.4,7.3-25.4c6.1-7.1,15.5-9,24.4-9.2c5.5-0.1,5.5-8.6,0-8.5c-17.9,0.3-33.1,8.4-38.2,26.4c-2.9,10.3-2,21.5-2,32
		C-997.2,1278.9-997.2,1303.2-997.2,1327.6z M-988.7,1288c0-8.3,0-16.6,0-25c0-2.7,0-5.5,0-8.2c21.4,0,42.7,0,64.1,0
		c0,11.1,0,22.1,0,33.2C-946,1288-967.4,1288-988.7,1288z"/>
	<path class="st2" d="M-1094.9,1335.4c10.7,0.6,14.1,17,21.5,23c7.8,6.4,18.3,4.7,24.9-2.5c5.6-6.2,11.5-25.2,22.8-19.6
		c9,4.4,10.6,17.8,19.2,23.4c8.7,5.7,18.6,2.2,24.6-5.4c5.4-6.9,12.9-26.5,24.2-15.9c7.3,6.9,9.2,18.4,19.1,22.7
		c9.1,3.9,17.5-0.7,22.9-8.1c3.4-4.7,5.7-11,10.1-14.8c6-5.3,12.1-1.8,16.1,3.9c6.4,9,10.4,19.8,23,20.5c5.5,0.3,5.4-8.2,0-8.5
		c-10.5-0.6-13.9-16.3-20.8-22.4c-7.1-6.4-17.4-6.1-24.3,0.5c-6.2,5.9-10.2,21.9-20.2,21.9c-10.2,0-14.3-16.9-21.1-22.7
		c-7.5-6.5-18-5.4-24.8,1.6c-5.9,6.2-11.9,25.8-23.3,20.2c-9-4.4-10.6-17.8-19.2-23.4c-8.5-5.5-18.2-2.4-24.2,5
		c-6.8,8.3-15,29.3-26.9,13.5c-6.9-9.1-10.4-20.5-23.5-21.3C-1100.4,1326.6-1100.3,1335.1-1094.9,1335.4z"/>
	<path class="st2" d="M-866.6,1389.4c-10.5-0.6-13.9-16.3-20.8-22.4c-7.1-6.4-17.4-6.1-24.3,0.5c-6.2,5.9-10.2,21.9-20.2,21.9
		c-10.2,0-14.3-16.9-21.1-22.7c-7.5-6.5-18-5.4-24.8,1.6c-5.9,6.2-11.9,25.8-23.3,20.2c-9-4.4-10.6-17.8-19.2-23.4
		c-8.5-5.5-18.2-2.4-24.2,5c-6.8,8.3-15,29.3-26.9,13.5c-6.9-9.1-10.4-20.5-23.5-21.3c-5.5-0.3-5.4,8.2,0,8.5
		c10.7,0.6,14.1,17,21.5,23c7.8,6.4,18.3,4.7,24.9-2.5c5.6-6.2,11.5-25.2,22.8-19.6c9,4.4,10.6,17.8,19.2,23.4
		c8.7,5.7,18.6,2.2,24.6-5.4c5.4-6.9,12.9-26.5,24.2-15.9c7.3,6.9,9.2,18.4,19.1,22.7c9.1,3.9,17.5-0.7,22.9-8.1
		c3.4-4.7,5.7-11,10.1-14.8c6-5.3,12.1-1.8,16.1,3.9c6.4,9,10.4,19.8,23,20.5C-861.2,1398.2-861.2,1389.7-866.6,1389.4z"/>
</g>
<g id="north">
	<path class="st10" d="M-978.6,1193.5c-57.2,0-103.8,46.6-103.8,103.8s46.6,103.8,103.8,103.8c32.2,0,62-14.6,81.8-39.9
		c1.4-1.8,1.1-4.5-0.7-5.9c-1.8-1.4-4.5-1.1-5.9,0.7c-18.2,23.3-45.6,36.7-75.2,36.7c-52.6,0-95.3-42.8-95.3-95.3
		s42.8-95.3,95.3-95.3s95.3,42.8,95.3,95.3c0,2.3,1.9,4.2,4.2,4.2s4.2-1.9,4.2-4.2C-874.8,1240.1-921.4,1193.5-978.6,1193.5z"/>
	<path class="st10" d="M-937.4,1245.9l-41.5,41.5l-41.5-41.5c-1.4-1.4-3.7-1.6-5.3-0.5c-1.7,1.1-2.3,3.3-1.6,5.1l44.5,107.5
		c0.7,1.6,2.2,2.6,3.9,2.6c1.7,0,3.2-1,3.9-2.6l44.5-107.5c0.7-1.6,0.3-3.4-0.9-4.6c-0.2-0.2-0.4-0.4-0.6-0.5
		C-933.8,1244.2-936,1244.4-937.4,1245.9z M-1011.4,1266.9l29.5,29.5c1.6,1.6,4.3,1.6,6,0l29.5-29.5l-32.5,78.4L-1011.4,1266.9
		L-1011.4,1266.9z"/>
</g>
</svg>
